Nächste Schritte
…
---

# Web Scraping

``` r
# Tabelle laden von Wikipedia (Pakete nicht vergessen)
read_html("https://de.wikipedia.org/wiki/R_(Programmiersprache)") %>%
  html_node(xpath = '/html/body/div[3]/div/div[3]/main/div[3]/div[3]/div[2]/table[3]') %>%
  html_table() %>% as_tibble()
```

```
## # A tibble: 18 × 5
##     Jahr Stadt                    Land                                  Teilnehmer Website
##    <int> <chr>                    <chr>                                 <chr>      <chr>  
##  1  2004 Wien                     Osterreich Österreich                 194        useR! …
##  2  2006 Wien                     Osterreich Österreich                 334        useR! …
##  3  2007 Ames, Iowa               Vereinigte Staaten Vereinigte Staaten unb.       useR! …
##  4  2008 Dortmund                 Deutschland Deutschland               387        useR! …
##  5  2009 Rennes                   Frankreich Frankreich                 463        useR! …
##  6  2010 Gaithersburg, Maryland   Vereinigte Staaten Vereinigte Staaten 465        useR! …
##  7  2011 Coventry                 Vereinigtes Konigreich Vereinigtes K… 430        useR! …
##  8  2012 Nashville, Tennessee     Vereinigte Staaten Vereinigte Staaten 469        useR! …
##  9  2013 Albacete                 Spanien Spanien                       328        useR! …
## 10  2014 Los Angeles, Kalifornien Vereinigte Staaten Vereinigte Staaten 604        useR! …
## # ℹ 8 more rows
```
…
